{
  "type": "service_account",
  "project_id": "shop-8aa2c",
  "private_key_id": "e9c56fb0d0f690bbfa6f7f40140fac2f68186f74",
  "private_key": "-----BEGIN PRIVATE KEY-----\nMIIEvAIBADANBgkqhkiG9w0BAQEFAASCBKYwggSiAgEAAoIBAQDYo9rH+rhP2rD4\nzSBUUxFClLQLKn2LtUtOWYs3yXDpMJdub8ZtdnjW6V30hoN9zRjS0vNWPmOeYikU\nK7jkZD5RC4giIp6TlQ1Cfyscjy2opfraVYTlQFtX/r5+Ct/vW+ldEDPn9XzLiKfR\nIBIlqLDdpbpgbBZgJ4Z6Ehe/xpetRKgwKPUPUCWuy52mTDUfQLHlC2Kc4Dko3Yh5\ntNBMQTwJwWV9HVH9LcrHFpq1UAql3LrCiDfQYuGw7JkGy7/GVupsbareZBWFXELH\nLXtYFNxcemyY5woQF0NbcTMZ2XAsgvCu9ZyQjfnBIQNvJSLarPvxTKKDGzGAxNN+\nDnX2lTPFAgMBAAECggEARkHthAl1mMAtwKKVp4NBB7y+HxjqmlJzV7eGhNMZgSa3\nFaO+UGWpjtkkFVdCcZwAPu8W55NYL1daRyZe0gMIirQYtClSED64jCY9zwdIIXei\nwQgXD1otxX3iPXI9aZz/M6U7kDB3BnMNKa8i83+fzGIg7YBgSVLIM/KGLTW0nwYa\nIfgUVBNYcepuY8nrRD3jAu5aLWKlscrUIDsbfkDj+wZwWnGq1Nx9ASFWUMSwrYwO\nIDM552HW0JKkXWo/n3l3qyfpsVTgL423x/gV2lOIh29nJtCjs2k6BlvMz147hAvL\nWP+D6TqHqzZK1Q1wcI1OSfKVKuXZldiFVJVK2lGGiQKBgQD43RRk4Yfgdc3qocDr\nkTGjRg9+pRCcPU3HEHENDC84R84eP0Shl81wWbhcHZzKMfkITYnVgRqJs0y9319c\n+YH5CrLaCEqKo06lC8TmvZGzx71UbDB7H/Sdu1gnvYEjmcqmj6W9A38SOUDSAeMg\nTYFn6SsMM8IoK5RSNsJMMiRz8wKBgQDe2jhnqIXNDHBWgteQ+oUzkImxSWR5PPpg\ngpeS3KwQkwTMhMQTvC3pSHVzDvSjN5WaRJsDY7CHXrZFrW0k8QBQgQbz5VFKp69v\nEwYg5XZheAx8k9GtUHuFLoR+clmpXONSInUUqNovg3fDomVtgmGTtBii8Gwujgoj\n5NwnREd/ZwKBgGnmKfeDwT5S4v0lN+MGNgk0lwNdWmQh8ibzaCgVN0LLy3ozkhDx\neAqHI1yPfVjNSxutYynndlOCaPWjSAFYa2Z+lv0Q6id0ttKk33UQ1h+ar4ZtQ3Qh\ndQZp4mmGyp1LpGCcX/q+siQfGOZEx1HHqXl+T0MyAzz0znjttGCYNcrhAoGARTcb\n274wyI37ejMrRuE4a9qRmZnE9g7laQJGl5uoaYFwNSFrUQHadKFHsVPM0cDa205B\noxzcYD8fd6a0xot/4IEiqq/nvrs0Nth+x8rdKMrDfhHfRug/ZQ8cobVcecja5dDD\n8oW7NpSrpvySah/btKd0G292+kKtjZZwdlWzqzMCgYBvjDs/ZicOXjJnRMO9rEAD\nxCb66LNGcAu5+PgeWILxwURd1Mhk3xgPRJRd42Ghdukd6kUZqufq9ZRRUIdCwlxt\nTKy18Jeusq4t1LtLjA/eICAVLotu6VOrk2JLBEurhmuCvlm0nsw0LxA/3sTzYaM5\n62JtWIYnQKfis3veG5M4Pw==\n-----END PRIVATE KEY-----\n",
  "client_email": "firebase-adminsdk-vypp7@shop-8aa2c.iam.gserviceaccount.com",
  "client_id": "114148126775070054613",
  "auth_uri": "https://accounts.google.com/o/oauth2/auth",
  "token_uri": "https://oauth2.googleapis.com/token",
  "auth_provider_x509_cert_url": "https://www.googleapis.com/oauth2/v1/certs",
  "client_x509_cert_url": "https://www.googleapis.com/robot/v1/metadata/x509/firebase-adminsdk-vypp7%40shop-8aa2c.iam.gserviceaccount.com"
}
